{
  "development": {
    "username": "management",
    "password": "QM-timemg",
    "database": "qmsg-stage",
    "host": "rdslyxkt27rjjnogi1q4.mysql.rds.aliyuncs.com",
    "dialect": "mysql"
  },
  "test": {
    "username": "prod_mng",
    "password": "QM-timemg2016",
    "database": "qmsg-prod",
    "host": "rdsko7x2f31ur3su9s6h.mysql.rds.aliyuncs.com",
    "dialect": "mysql"
  },
  "production": {
   "username": "prod_mng",
    "password": "QM-timemg2016",
    "database": "qmsg-prod",
    "host": "rdsko7x2f31ur3su9s6h.mysql.rds.aliyuncs.com",
    "dialect": "mysql"
  }
}
